[
{
  "pk": 1, 
  "model": "auth.user", 
  "fields": {
    "username": "root", 
    "first_name": "", 
    "last_name": "", 
    "is_active": true, 
    "is_superuser": true, 
    "is_staff": true, 
    "last_login": "2014-04-28T19:46:35.695Z", 
    "groups": [], 
    "user_permissions": [], 
    "password": "pbkdf2_sha256$12000$9WLuLM975O9c$fK4mgPWlyAx9A6gqpOrEzBFfAFsBOApy2LGzsocSjTU=", 
    "email": "root@test.com", 
    "date_joined": "2014-04-28T19:45:39.470Z"
  }
}
]
